{
  "|home|ks|HUGO|.gitignore" : {
    "enc" : "UTF-8",
    "top" : 6,
    "tab_size" : 4,
    "tab_spaces" : false,
    "crt" : "0,27,-1,-1,"
  },
  "|home|ks|HUGO|.gitlab-ci.yml" : {
    "lexer" : "YAML",
    "enc" : "UTF-8",
    "tab_size" : 2,
    "tab_spaces" : true,
    "crt" : "10,12,-1,-1,"
  },
  "|home|ks|new|Blog|.github|workflows|gh-pages.yml" : {
    "lexer" : "YAML",
    "enc" : "UTF-8",
    "tab_size" : 2,
    "tab_spaces" : true,
    "crt" : "24,24,-1,-1,"
  },
  "|home|ks|new|Blog|README.md" : {
    "lexer" : "Markdown",
    "enc" : "UTF-8",
    "tab_size" : 4,
    "tab_spaces" : false,
    "crt" : "0,0,-1,-1,"
  },
  "|home|ks|new|Blog|config.yaml" : {
    "lexer" : "YAML",
    "enc" : "UTF-8",
    "top" : 33,
    "tab_size" : 2,
    "tab_spaces" : true,
    "crt" : "0,15,-1,-1,"
  },
  "|home|ks|new|Blog|archetypes|default.md" : {
    "lexer" : "Markdown",
    "enc" : "UTF-8",
    "tab_size" : 4,
    "tab_spaces" : false,
    "crt" : "0,0,-1,-1,"
  },
  "|home|ks|new|blog.gitlab.io|.gitlab-ci.yml" : {
    "lexer" : "YAML",
    "enc" : "UTF-8",
    "tab_size" : 2,
    "tab_spaces" : true,
    "crt" : "10,12,-1,-1,"
  },
  "|home|ks|new|blog.gitlab.io|public|scss|style.min.css" : {
    "lexer" : "CSS",
    "enc" : "UTF-8",
    "tab_size" : 4,
    "tab_spaces" : false,
    "crt" : "13,14,-1,-1,"
  },
  "|home|ks|new|blog.gitlab.io|config.yaml" : {
    "lexer" : "YAML",
    "enc" : "UTF-8",
    "top" : 171,
    "tab_size" : 2,
    "tab_spaces" : true,
    "crt" : "24,188,-1,-1,"
  },
  "|home|ks|Blog|hugo-blog-jeffprod|.github|FUNDING.yml" : {
    "lexer" : "YAML",
    "enc" : "UTF-8",
    "tab_size" : 2,
    "tab_spaces" : true,
    "crt" : "0,2,-1,-1,"
  },
  "|home|ks|code-git|HUGO|ArchStar|config.toml" : {
    "lexer" : "TOML",
    "enc" : "UTF-8",
    "tab_size" : 4,
    "tab_spaces" : false,
    "crt" : "0,3,-1,-1,"
  },
  "|home|ks|code-git|HUGO|notun|layouts|list.html" : {
    "lexer" : "HTML",
    "enc" : "UTF-8",
    "tab_size" : 4,
    "tab_spaces" : false,
    "crt" : "0,0,-1,-1,"
  },
  "|home|ks|code-git|HUGO|notun|layouts|index.html" : {
    "lexer" : "HTML",
    "enc" : "UTF-8",
    "tab_size" : 4,
    "tab_spaces" : false,
    "crt" : "0,0,-1,-1,"
  },
  "|home|ks|HUGO|public|index.html" : {
    "lexer" : "HTML",
    "enc" : "UTF-8",
    "top" : 291,
    "tab_size" : 4,
    "tab_spaces" : false,
    "crt" : "35,310,-1,-1,"
  },
  "|home|ks|HUGO|themes|hugo-theme-stack|assets|jsconfig.json" : {
    "enc" : "UTF-8",
    "tab_size" : 2,
    "tab_spaces" : true,
    "crt" : "0,0,-1,-1,"
  },
  "|home|ks|HUGO|themes|hugo-theme-stack|i18n|ko.yaml" : {
    "lexer" : "YAML",
    "enc" : "UTF-8",
    "tab_size" : 2,
    "tab_spaces" : true,
    "crt" : "0,38,-1,-1,"
  },
  "|home|ks|HUGO|archetypes|default.md" : {
    "lexer" : "Markdown",
    "enc" : "UTF-8",
    "tab_size" : 4,
    "tab_spaces" : false,
    "crt" : "0,6,-1,-1,"
  },
  "|home|ks|HUGO|content|categories|C++|_index.md" : {
    "lexer" : "Markdown",
    "enc" : "UTF-8",
    "tab_size" : 4,
    "tab_spaces" : false,
    "crt" : "0,0,-1,-1,"
  },
  "|home|ks|HUGO|content|post|chinese-test|index.md" : {
    "lexer" : "Markdown",
    "enc" : "UTF-8",
    "tab_size" : 4,
    "tab_spaces" : false,
    "scale" : 70,
    "crt" : "10,7,-1,-1,"
  },
  "|home|ks|HUGO|config.yaml" : {
    "lexer" : "YAML",
    "enc" : "UTF-8",
    "top" : 48,
    "tab_size" : 2,
    "tab_spaces" : true,
    "crt" : "34,42,-1,-1,"
  },
  "|home|ks|HUGO|content|post|emoji-support|index.md" : {
    "lexer" : "Markdown",
    "enc" : "UTF-8",
    "tab_size" : 4,
    "tab_spaces" : false,
    "crt" : "24,40,-1,-1,"
  },
  "|home|ks|HUGO|content|post|markdown-syntax|index.md" : {
    "lexer" : "Markdown",
    "enc" : "UTF-8",
    "top" : 117,
    "tab_size" : 4,
    "tab_spaces" : false,
    "crt" : "0,132,-1,-1,"
  },
  "|home|ks|HUGO|content|post|math-typesetting|index.md" : {
    "lexer" : "Markdown",
    "enc" : "UTF-8",
    "tab_size" : 4,
    "tab_spaces" : false,
    "crt" : "3,0,-1,-1,"
  },
  "|home|ks|HUGO|content|post|placeholder-text|index.md" : {
    "lexer" : "Markdown",
    "enc" : "UTF-8",
    "tab_size" : 4,
    "tab_spaces" : false,
    "crt" : "0,42,-1,-1,"
  },
  "|home|ks|HUGO|content|post|rich-content|index.md" : {
    "lexer" : "Markdown",
    "enc" : "UTF-8",
    "top" : 30,
    "tab_size" : 4,
    "tab_spaces" : false,
    "crt" : "0,38,-1,-1,"
  }
}